800x800
Circle (8) [150, 10] {127, 127, 255}
Circle (300) [330, 122] {Lime}
Circle (50) [600, 110] {Olive}
Circle (100) [390, 510] {Purple}
Circle (20) [400, 400] {Magenta}
Circle (600) [0, 0] {127, 0, 255}
Circle (200) [150, 310] {Navy}
